%YAML 1.1
%TAG !u! tag:unity3d.com,2011:
--- !u!114 &11400000
MonoBehaviour:
  m_ObjectHideFlags: 0
  m_CorrespondingSourceObject: {fileID: 0}
  m_PrefabInstance: {fileID: 0}
  m_PrefabAsset: {fileID: 0}
  m_GameObject: {fileID: 0}
  m_Enabled: 1
  m_EditorHideFlags: 0
  m_Script: {fileID: 11500000, guid: 567932c5e1c63d348a6d984ead09a703, type: 3}
  m_Name: Card1 5
  m_EditorClassIdentifier: 
  <Name>k__BackingField: 1Card
  <Sprite>k__BackingField: {fileID: 21300000, guid: 56b480213ded30244b28e72660856365, type: 3}
  <Color>k__BackingField: {r: 0.9846988, g: 1, b: 0, a: 1}
